…
avg_payroll_tab <- team_payrolls %>%
  group_by(yearID) %>%
  summarize(mean_payroll=mean(team_payroll), sd_payroll=sd(team_payroll))

# standardized data table
std_tab <- inner_join(team_payrolls, avg_payroll_tab) %>%
  mutate(std_payroll=((team_payroll - mean_payroll) / sd_payroll))

# view it
sample_n(std_tab, 10)

## # A tibble: 320 x 9
## # Groups:   yearID [32]
##    yearID teamID team_payroll time_period avg_pay_over_time
##     <int> <chr>         <dbl> <fct>                   <dbl>
##  1   1985 PIT        9227500. (1985,1991]         12235667.
##  2   1985 BAL       11560712. (1985,1991]         12495510.
##  3   1985 CHA        9846178. (2010,2016]        107417996.
##  4   1985 SDN       11036583. (2004,2010]         60615615.
##  5   1985 BOS       10897560. (1991,1997]         39499670.
##  6   1985 CHN       12702917. (1991,1997]         35040975.
##  7   1985 PHI       10124966. (2004,2010]         96171106.
##  8   1985 KCA        9321179. (2010,2016]         72471043.
##  9   1985 ML4       11284107. (1991,1997]         23725861.
## 10   1985 TEX        7676500. (2004,2010]         63889646.
## # ... with 310 more rows, and 4 more variables:
## #   avg_win_percent_over_time <dbl>, mean_payroll <dbl>, sd_payroll <dbl>,
## #   std_payroll <dbl>
…
This data, specifically the regression line, shows that if a team spends the average payroll on players, they will likely win approximately 50% of their games on average.

Spending Efficiency:

Problem 8: Write dplyr code to calculate spending efficiency for each team. Make a line plot with year on the x-axis and efficiency on the y-axis. 

# calculate expected winning percentage
std_tab <- std_tab %>%
  mutate(exp_win_percentage=(50 + 2.5  * std_payroll))

# view it
sample_n(std_tab %>% select(teamID, yearID, avg_win_percent_over_time, exp_win_percentage), 10)

## # A tibble: 320 x 4
## # Groups:   yearID [32]
##    teamID yearID avg_win_percent_over_time exp_win_percentage
##    <chr>   <int>                     <dbl>              <dbl>
##  1 NYA      1985                      55.9               54.5
##  2 MIN      1985                      44.2               45.6
##  3 TEX      1985                      48.1               47.6
##  4 BOS      1985                      58.1               51.0
##  5 NYA      1985                      50.7               54.5
##  6 CHA      1985                      52.6               49.9
##  7 PIT      1985                      49.9               49.3
##  8 MON      1985                      50.4               49.5
##  9 ATL      1985                      42.8               55.1
## 10 CHN      1985                      51.5               52.9
## # ... with 310 more rows
…
